Data Manipulation
…
Preparation

library(tidyverse)
library(nycflights13)

Caution

dplyr overwrites some functions in base R. 
 When base version is needed, stats::filter() and stats::lag() are employed

nycflights13

flights

## # A tibble: 336,776 x 19
##     year month   day dep_time sched_dep_time dep_delay arr_time sched_arr_time arr_delay carrier flight tailnum origin dest  air_time distance  hour
##    <int> <int> <int>    <int>          <int>     <dbl>    <int>          <int>     <dbl> <chr>    <int> <chr>   <chr>  <chr>    <dbl>    <dbl> <dbl>
##  1  2013     1     1      517            515         2      830            819        11 UA        1545 N14228  EWR    IAH        227     1400     5
##  2  2013     1     1      533            529         4      850            830        20 UA        1714 N24211  LGA    IAH        227     1416     5
##  3  2013     1     1      542            540         2      923            850        33 AA        1141 N619AA  JFK    MIA        160     1089     5
##  4  2013     1     1      544            545        -1     1004           1022       -18 B6         725 N804JB  JFK    BQN        183     1576     5
##  5  2013     1     1      554            600        -6      812            837       -25 DL         461 N668DN  LGA    ATL        116      762     6
##  6  2013     1     1      554            558        -4      740            728        12 UA        1696 N39463  EWR    ORD        150      719     5
##  7  2013     1     1      555            600        -5      913            854        19 B6         507 N516JB  EWR    FLL        158     1065     6
##  8  2013     1     1      557            600        -3      709            723       -14 EV        5708 N829AS  LGA    IAD         53      229     6
##  9  2013     1     1      557            600        -3      838            846        -8 B6          79 N593JB  JFK    MCO        140      944     6
## 10  2013     1     1      558            600        -2      753            745         8 AA         301 N3ALAA  LGA    ORD        138      733     6
## # ... with 336,766 more rows, and 2 more variables: minute <dbl>, time_hour <dttm>
…
(i) filter()

jan1 <- filter(flights, month == 1, day == 1)
dec25 <- filter(flights, month == 12, day == 25)
nov_dec <- filter(flights, month == 11 | month == 12)

jan1
dec25
nov_dec

## # A tibble: 842 x 19
##     year month   day dep_time sched_dep_time dep_delay arr_time sched_arr_time arr_delay carrier flight tailnum origin dest  air_time distance  hour
##    <int> <int> <int>    <int>          <int>     <dbl>    <int>          <int>     <dbl> <chr>    <int> <chr>   <chr>  <chr>    <dbl>    <dbl> <dbl>
##  1  2013     1     1      517            515         2      830            819        11 UA        1545 N14228  EWR    IAH        227     1400     5
##  2  2013     1     1      533            529         4      850            830        20 UA        1714 N24211  LGA    IAH        227     1416     5
##  3  2013     1     1      542            540         2      923            850        33 AA        1141 N619AA  JFK    MIA        160     1089     5
##  4  2013     1     1      544            545        -1     1004           1022       -18 B6         725 N804JB  JFK    BQN        183     1576     5
##  5  2013     1     1      554            600        -6      812            837       -25 DL         461 N668DN  LGA    ATL        116      762     6
##  6  2013     1     1      554            558        -4      740            728        12 UA        1696 N39463  EWR    ORD        150      719     5
##  7  2013     1     1      555            600        -5      913            854        19 B6         507 N516JB  EWR    FLL        158     1065     6
##  8  2013     1     1      557            600        -3      709            723       -14 EV        5708 N829AS  LGA    IAD         53      229     6
##  9  2013     1     1      557            600        -3      838            846        -8 B6          79 N593JB  JFK    MCO        140      944     6
## 10  2013     1     1      558            600        -2      753            745         8 AA         301 N3ALAA  LGA    ORD        138      733     6
## # ... with 832 more rows, and 2 more variables: minute <dbl>, time_hour <dttm>
## # A tibble: 719 x 19
##     year month   day dep_time sched_dep_time dep_delay arr_time sched_arr_time arr_delay carrier flight tailnum origin dest  air_time distance  hour
##    <int> <int> <int>    <int>          <int>     <dbl>    <int>          <int>     <dbl> <chr>    <int> <chr>   <chr>  <chr>    <dbl>    <dbl> <dbl>
##  1  2013    12    25      456            500        -4      649            651        -2 US        1895 N156UW  EWR    CLT         98      529     5
##  2  2013    12    25      524            515         9      805            814        -9 UA        1016 N32404  EWR    IAH        203     1400     5
##  3  2013    12    25      542            540         2      832            850       -18 AA        2243 N5EBAA  JFK    MIA        146     1089     5
##  4  2013    12    25      546            550        -4     1022           1027        -5 B6         939 N665JB  JFK    BQN        191     1576     5
##  5  2013    12    25      556            600        -4      730            745       -15 AA         301 N3JLAA  LGA    ORD        123      733     6
##  6  2013    12    25      557            600        -3      743            752        -9 DL         731 N369NB  LGA    DTW         88      502     6
##  7  2013    12    25      557            600        -3      818            831       -13 DL         904 N397DA  LGA    ATL        118      762     6
##  8  2013    12    25      559            600        -1      855            856        -1 B6         371 N608JB  LGA    FLL        147     1076     6
##  9  2013    12    25      559            600        -1      849            855        -6 B6         605 N536JB  EWR    FLL        149     1065     6
## 10  2013    12    25      600            600         0      850            846         4 B6         583 N746JB  JFK    MCO        137      944     6
## # ... with 709 more rows, and 2 more variables: minute <dbl>, time_hour <dttm>
## # A tibble: 55,403 x 19
##     year month   day dep_time sched_dep_time dep_delay arr_time sched_arr_time arr_delay carrier flight tailnum origin dest  air_time distance  hour
##    <int> <int> <int>    <int>          <int>     <dbl>    <int>          <int>     <dbl> <chr>    <int> <chr>   <chr>  <chr>    <dbl>    <dbl> <dbl>
##  1  2013    11     1        5           2359         6      352            345         7 B6         745 N568JB  JFK    PSE        205     1617    23
##  2  2013    11     1       35           2250       105      123           2356        87 B6        1816 N353JB  JFK    SYR         36      209    22
##  3  2013    11     1      455            500        -5      641            651       -10 US        1895 N192UW  EWR    CLT         88      529     5
##  4  2013    11     1      539            545        -6      856            827        29 UA        1714 N38727  LGA    IAH        229     1416     5
##  5  2013    11     1      542            545        -3      831            855       -24 AA        2243 N5CLAA  JFK    MIA        147     1089     5
##  6  2013    11     1      549            600       -11      912            923       -11 UA         303 N595UA  JFK    SFO        359     2586     6
##  7  2013    11     1      550            600       -10      705            659         6 US        2167 N748UW  LGA    DCA         57      214     6
##  8  2013    11     1      554            600        -6      659            701        -2 US        2134 N742PS  LGA    BOS         40      184     6
##  9  2013    11     1      554            600        -6      826            827        -1 DL         563 N912DE  LGA    ATL        126      762     6
## 10  2013    11     1      554            600        -6      749            751        -2 DL         731 N315NB  LGA    DTW         93      502     6
## # ... with 55,393 more rows, and 2 more variables: minute <dbl>, time_hour <dttm>

(ii) arrange()

arrange(flights, month, day)
arrange(flights, desc(month), desc(day))

## # A tibble: 336,776 x 19
##     year month   day dep_time sched_dep_time dep_delay arr_time sched_arr_time arr_delay carrier flight tailnum origin dest  air_time distance  hour
##    <int> <int> <int>    <int>          <int>     <dbl>    <int>          <int>     <dbl> <chr>    <int> <chr>   <chr>  <chr>    <dbl>    <dbl> <dbl>
##  1  2013     1     1      517            515         2      830            819        11 UA        1545 N14228  EWR    IAH        227     1400     5
##  2  2013     1     1      533            529         4      850            830        20 UA        1714 N24211  LGA    IAH        227     1416     5
##  3  2013     1     1      542            540         2      923            850        33 AA        1141 N619AA  JFK    MIA        160     1089     5
##  4  2013     1     1      544            545        -1     1004           1022       -18 B6         725 N804JB  JFK    BQN        183     1576     5
##  5  2013     1     1      554            600        -6      812            837       -25 DL         461 N668DN  LGA    ATL        116      762     6
##  6  2013     1     1      554            558        -4      740            728        12 UA        1696 N39463  EWR    ORD        150      719     5
##  7  2013     1     1      555            600        -5      913            854        19 B6         507 N516JB  EWR    FLL        158     1065     6
##  8  2013     1     1      557            600        -3      709            723       -14 EV        5708 N829AS  LGA    IAD         53      229     6
##  9  2013     1     1      557            600        -3      838            846        -8 B6          79 N593JB  JFK    MCO        140      944     6
## 10  2013     1     1      558            600        -2      753            745         8 AA         301 N3ALAA  LGA    ORD        138      733     6
## # ... with 336,766 more rows, and 2 more variables: minute <dbl>, time_hour <dttm>
## # A tibble: 336,776 x 19
##     year month   day dep_time sched_dep_time dep_delay arr_time sched_arr_time arr_delay carrier flight tailnum origin dest  air_time distance  hour
##    <int> <int> <int>    <int>          <int>     <dbl>    <int>          <int>     <dbl> <chr>    <int> <chr>   <chr>  <chr>    <dbl>    <dbl> <dbl>
##  1  2013    12    31       13           2359        14      439            437         2 B6         839 N566JB  JFK    BQN        189     1576    23
##  2  2013    12    31       18           2359        19      449            444         5 DL         412 N713TW  JFK    SJU        192     1598    23
##  3  2013    12    31       26           2245       101      129           2353        96 B6         108 N374JB  JFK    PWM         50      273    22
##  4  2013    12    31      459            500        -1      655            651         4 US        1895 N557UW  EWR    CLT         95      529     5
##  5  2013    12    31      514            515        -1      814            812         2 UA         700 N470UA  EWR    IAH        223     1400     5
##  6  2013    12    31      549            551        -2      925            900        25 UA         274 N577UA  EWR    LAX        346     2454     5
##  7  2013    12    31      550            600       -10      725            745       -20 AA         301 N3CXAA  LGA    ORD        127      733     6
##  8  2013    12    31      552            600        -8      811            826       -15 EV        3825 N14916  EWR    IND        118      645     6
##  9  2013    12    31      553            600        -7      741            754       -13 DL         731 N333NB  LGA    DTW         86      502     6
## 10  2013    12    31      554            550         4     1024           1027        -3 B6         939 N552JB  JFK    BQN        195     1576     5
## # ... with 336,766 more rows, and 2 more variables: minute <dbl>, time_hour <dttm>

desc(): reorder in descending order

(iii) select()

select(flights, year, month, day)
select(flights, year:day)
select(flights, -(year:day))
select(flights, YEAR = year, everything())

## # A tibble: 336,776 x 3
##     year month   day
##    <int> <int> <int>
##  1  2013     1     1
##  2  2013     1     1
##  3  2013     1     1
##  4  2013     1     1
##  5  2013     1     1
##  6  2013     1     1
##  7  2013     1     1
##  8  2013     1     1
##  9  2013     1     1
## 10  2013     1     1
## # ... with 336,766 more rows
## # A tibble: 336,776 x 3
##     year month   day
##    <int> <int> <int>
##  1  2013     1     1
##  2  2013     1     1
##  3  2013     1     1
##  4  2013     1     1
##  5  2013     1     1
##  6  2013     1     1
##  7  2013     1     1
##  8  2013     1     1
##  9  2013     1     1
## 10  2013     1     1
## # ... with 336,766 more rows
## # A tibble: 336,776 x 16
##    dep_time sched_dep_time dep_delay arr_time sched_arr_time arr_delay carrier flight tailnum origin dest  air_time distance  hour minute
##       <int>          <int>     <dbl>    <int>          <int>     <dbl> <chr>    <int> <chr>   <chr>  <chr>    <dbl>    <dbl> <dbl>  <dbl>
##  1      517            515         2      830            819        11 UA        1545 N14228  EWR    IAH        227     1400     5     15
##  2      533            529         4      850            830        20 UA        1714 N24211  LGA    IAH        227     1416     5     29
##  3      542            540         2      923            850        33 AA        1141 N619AA  JFK    MIA        160     1089     5     40
##  4      544            545        -1     1004           1022       -18 B6         725 N804JB  JFK    BQN        183     1576     5     45
##  5      554            600        -6      812            837       -25 DL         461 N668DN  LGA    ATL        116      762     6      0
##  6      554            558        -4      740            728        12 UA        1696 N39463  EWR    ORD        150      719     5     58
##  7      555            600        -5      913            854        19 B6         507 N516JB  EWR    FLL        158     1065     6      0
##  8      557            600        -3      709            723       -14 EV        5708 N829AS  LGA    IAD         53      229     6      0
##  9      557            600        -3      838            846        -8 B6          79 N593JB  JFK    MCO        140      944     6      0
## 10      558            600        -2      753            745         8 AA         301 N3ALAA  LGA    ORD        138      733     6      0
## # ... with 336,766 more rows, and 1 more variable: time_hour <dttm>
## # A tibble: 336,776 x 19
##     YEAR month   day dep_time sched_dep_time dep_delay arr_time sched_arr_time arr_delay carrier flight tailnum origin dest  air_time distance  hour
##    <int> <int> <int>    <int>          <int>     <dbl>    <int>          <int>     <dbl> <chr>    <int> <chr>   <chr>  <chr>    <dbl>    <dbl> <dbl>
##  1  2013     1     1      517            515         2      830            819        11 UA        1545 N14228  EWR    IAH        227     1400     5
##  2  2013     1     1      533            529         4      850            830        20 UA        1714 N24211  LGA    IAH        227     1416     5
##  3  2013     1     1      542            540         2      923            850        33 AA        1141 N619AA  JFK    MIA        160     1089     5
##  4  2013     1     1      544            545        -1     1004           1022       -18 B6         725 N804JB  JFK    BQN        183     1576     5
##  5  2013     1     1      554            600        -6      812            837       -25 DL         461 N668DN  LGA    ATL        116      762     6
##  6  2013     1     1      554            558        -4      740            728        12 UA        1696 N39463  EWR    ORD        150      719     5
##  7  2013     1     1      555            600        -5      913            854        19 B6         507 N516JB  EWR    FLL        158     1065     6
##  8  2013     1     1      557            600        -3      709            723       -14 EV        5708 N829AS  LGA    IAD         53      229     6
##  9  2013     1     1      557            600        -3      838            846        -8 B6          79 N593JB  JFK    MCO        140      944     6
## 10  2013     1     1      558            600        -2      753            745         8 AA         301 N3ALAA  LGA    ORD        138      733     6
## # ... with 336,766 more rows, and 2 more variables: minute <dbl>, time_hour <dttm>
…
transmute(): extract only new variables

mutate(flights_sml,
  gain = dep_delay - arr_delay,
  hours = air_time / 60,
  gain_per_hour = gain / hours
)

transmute(flights,
  gain = dep_delay - arr_delay,
  hours = air_time / 60,
  gain_per_hour = gain / hours
)

## # A tibble: 336,776 x 10
##     year month   day dep_delay arr_delay distance air_time  gain hours gain_per_hour
##    <int> <int> <int>     <dbl>     <dbl>    <dbl>    <dbl> <dbl> <dbl>         <dbl>
##  1  2013     1     1         2        11     1400      227    -9 3.78          -2.38
##  2  2013     1     1         4        20     1416      227   -16 3.78          -4.23
##  3  2013     1     1         2        33     1089      160   -31 2.67         -11.6 
##  4  2013     1     1        -1       -18     1576      183    17 3.05           5.57
##  5  2013     1     1        -6       -25      762      116    19 1.93           9.83
##  6  2013     1     1        -4        12      719      150   -16 2.5           -6.4 
##  7  2013     1     1        -5        19     1065      158   -24 2.63          -9.11
##  8  2013     1     1        -3       -14      229       53    11 0.883         12.5 
##  9  2013     1     1        -3        -8      944      140     5 2.33           2.14
## 10  2013     1     1        -2         8      733      138   -10 2.3           -4.35
## # ... with 336,766 more rows
## # A tibble: 336,776 x 3
##     gain hours gain_per_hour
##    <dbl> <dbl>         <dbl>
##  1    -9 3.78          -2.38
##  2   -16 3.78          -4.23
##  3   -31 2.67         -11.6 
##  4    17 3.05           5.57
##  5    19 1.93           9.83
##  6   -16 2.5           -6.4 
##  7   -24 2.63          -9.11
##  8    11 0.883         12.5 
##  9     5 2.33           2.14
## 10   -10 2.3           -4.35
## # ... with 336,766 more rows

b. %/% (integer division) and %% (remainder)

transmute(flights,
  dep_time,
  hour = dep_time %/% 100,
  minute = dep_time %% 100
)

## # A tibble: 336,776 x 3
##    dep_time  hour minute
##       <int> <dbl>  <dbl>
##  1      517     5     17
##  2      533     5     33
##  3      542     5     42
##  4      544     5     44
##  5      554     5     54
##  6      554     5     54
##  7      555     5     55
##  8      557     5     57
##  9      557     5     57
## 10      558     5     58
## # ... with 336,766 more rows
…
summarise() should be used with group_by()

summarise(flights, delay = mean(dep_delay, na.rm = TRUE))

by_day <- group_by(flights, year, month, day)
summarise(by_day, delay = mean(dep_delay, na.rm = TRUE))

## `summarise()` regrouping output by 'year', 'month' (override with `.groups` argument)

## # A tibble: 1 x 1
##   delay
##   <dbl>
## 1  12.6
## # A tibble: 365 x 4
## # Groups:   year, month [12]
##     year month   day delay
##    <int> <int> <int> <dbl>
##  1  2013     1     1 11.5 
##  2  2013     1     2 13.9 
##  3  2013     1     3 11.0 
##  4  2013     1     4  8.95
##  5  2013     1     5  5.73
##  6  2013     1     6  7.15
##  7  2013     1     7  5.42
##  8  2013     1     8  2.55
##  9  2013     1     9  2.28
## 10  2013     1    10  2.84
## # ... with 355 more rows
…
